Modeling price with text data • nyclodging
…
model_df
#> # A tibble: 47,483 × 263
#> # Groups:   list_id, lon, lat, price2 [47,483]
#>    list_id   lon   lat price2   apt clean  home  park quiet midtown harlem
#>      <dbl> <dbl> <dbl>  <dbl> <int> <int> <int> <int> <int>   <int>  <int>
#>  1    2539 -74.0  40.6    149     1     1     1     1     1       0      0
#>  2    2595 -74.0  40.8    225     0     0     0     0     0       1      0
#>  3    3647 -73.9  40.8    150     0     0     0     0     0       0      1
#>  4    3831 -74.0  40.7     89     0     0     0     0     0       0      0
#>  5    5022 -73.9  40.8     80     1     0     0     1     0       0      0
#>  6    5099 -74.0  40.7    200     0     0     0     0     0       1      0
#>  7    5178 -74.0  40.8     79     0     0     0     0     0       0      0
#>  8    5203 -74.0  40.8     79     1     1     0     0     0       0      0
#>  9    5238 -74.0  40.7    150     0     0     0     0     0       0      0
#> 10    5295 -74.0  40.8    135     0     0     0     0     0       0      0
#> # … with 47,473 more rows, and 252 more variables: village <int>, york <int>,
#> #   brownstone <int>, cozy <int>, entire <int>, floor <int>, central <int>,
#> #   loft <int>, spacious <int>, studio <int>, apartment <int>, br <int>,
#> #   east <int>, furnished <int>, family <int>, guest <int>, bdrm <int>,
#> #   cute <int>, lower <int>, 1br <int>, beautiful <int>, upper <int>,
#> #   west <int>, manhattan <int>, garden <int>, lovely <int>, rental <int>,
#> #   bedroom <int>, perfect <int>, chelsea <int>, backyard <int>, hip <int>, …
…
