Text Analysis • nyclodging
…
## Joining, by = "word"

words %>% 
  distinct(word)

## # A tibble: 408 × 1
##    word   
##    <chr>  
##  1 clean  
##  2 quiet  
##  3 apt    
##  4 home   
##  5 park   
##  6 midtown
##  7 village
##  8 harlem 
##  9 york   
## 10 cozy   
## # … with 398 more rows
…
